C:\Users\Regulus\Desktop\WebApplication\src\main\java\test\Animal.java
C:\Users\Regulus\Desktop\WebApplication\src\main\java\Goat.java
C:\Users\Regulus\Desktop\WebApplication\src\main\java\Dog.java
C:\Users\Regulus\Desktop\WebApplication\src\main\java\Test.java
C:\Users\Regulus\Desktop\WebApplication\src\main\java\MainServlet.java
